<?xml version="1.0" encoding="UTF-8" standalone="no"?>
<!DOCTYPE svg PUBLIC "-//W3C//DTD SVG 1.1//EN"
 "http://www.w3.org/Graphics/SVG/1.1/DTD/svg11.dtd">
<!-- Generated by graphviz version 2.40.1 (0)
 -->
<!-- Title: workflow Pages: 1 -->
<svg width="3254pt" height="548pt"
 viewBox="0.00 0.00 3347.00 564.00" xmlns="http://www.w3.org/2000/svg" xmlns:xlink="http://www.w3.org/1999/xlink">
<g id="graph0" class="graph" transform="scale(.9722 .9722) rotate(0) translate(4 560)">
<title>workflow</title>
<g id="clust1" class="cluster">
<title>cluster_inputs</title>
<polygon fill="transparent" stroke="#000000" stroke-dasharray="5,2" points="8,-493 8,-548 3331,-548 3331,-493 8,-493"/>
<text text-anchor="middle" x="48" y="-536" font-family="Times,serif" font-size="10.00" fill="#000000">Workflow Inputs</text>
</g>
<g id="clust2" class="cluster">
<title>cluster_outputs</title>
<polygon fill="transparent" stroke="#000000" stroke-dasharray="5,2" points="336,-8 336,-63 1374,-63 1374,-8 336,-8"/>
<text text-anchor="middle" x="379.5" y="-15" font-family="Times,serif" font-size="10.00" fill="#000000">Workflow Outputs</text>
</g>
<!-- manta_min_q -->
<g id="node1" class="node">
<title>manta_min_q</title>
<polygon fill="#94ddf4" stroke="#000000" points="2691.5,-501.5 2691.5,-520.5 2766.5,-520.5 2766.5,-501.5 2691.5,-501.5"/>
<text text-anchor="middle" x="2729" y="-508.5" font-family="Helvetica,sans-Serif" font-size="10.00" fill="#000000">manta_min_q</text>
</g>
<!-- cnv_manta -->
<g id="node60" class="node">
<title>cnv_manta</title>
<polygon fill="#f3cea1" stroke="#000000" points="2382,-88.5 2382,-107.5 2446,-107.5 2446,-88.5 2382,-88.5"/>
<text text-anchor="middle" x="2414" y="-95.5" font-family="Helvetica,sans-Serif" font-size="10.00" fill="#000000">cnv_manta</text>
</g>
<!-- manta_min_q&#45;&gt;cnv_manta -->
<g id="edge47" class="edge">
<title>manta_min_q&#45;&gt;cnv_manta</title>
<path fill="none" stroke="#000000" d="M2710.68,-501.427C2703.7517,-498.2197 2695.6824,-494.9634 2688,-493 2634.5877,-479.3494 2569,-513.129 2569,-458 2569,-458 2569,-458 2569,-143 2569,-118.9289 2499.1862,-106.8988 2453.2664,-101.5895"/>
<polygon fill="#000000" stroke="#000000" points="2453.344,-99.1331 2446.1161,-100.7943 2452.8024,-104.0031 2453.344,-99.1331"/>
<text text-anchor="middle" x="2580" y="-298.6" font-family="Helvetica,sans-Serif" font-size="8.00" fill="#000000">min_q</text>
</g>
<!-- blacklist -->
<g id="node2" class="node">
<title>blacklist</title>
<polygon fill="#94ddf4" stroke="#000000" points="3271,-501.5 3271,-520.5 3323,-520.5 3323,-501.5 3271,-501.5"/>
<text text-anchor="middle" x="3297" y="-508.5" font-family="Helvetica,sans-Serif" font-size="10.00" fill="#000000">blacklist</text>
</g>
<!-- cnv_gridss -->
<g id="node54" class="node">
<title>cnv_gridss</title>
<polygon fill="#f3cea1" stroke="#000000" points="2868,-88.5 2868,-107.5 2930,-107.5 2930,-88.5 2868,-88.5"/>
<text text-anchor="middle" x="2899" y="-95.5" font-family="Helvetica,sans-Serif" font-size="10.00" fill="#000000">cnv_gridss</text>
</g>
<!-- blacklist&#45;&gt;cnv_gridss -->
<g id="edge17" class="edge">
<title>blacklist&#45;&gt;cnv_gridss</title>
<path fill="none" stroke="#000000" d="M3288.457,-501.2009C3280.5469,-491.095 3270,-474.5225 3270,-458 3270,-458 3270,-458 3270,-143 3270,-109.7624 3032.3011,-100.9025 2937.4288,-98.69"/>
<polygon fill="#000000" stroke="#000000" points="2937.3647,-96.2381 2930.3115,-98.5303 2937.2548,-101.1368 2937.3647,-96.2381"/>
<text text-anchor="middle" x="3284.5" y="-298.6" font-family="Helvetica,sans-Serif" font-size="8.00" fill="#000000">blacklist</text>
</g>
<!-- bits_set -->
<g id="node3" class="node">
<title>bits_set</title>
<polygon fill="#94ddf4" stroke="#000000" points="1156,-501.5 1156,-520.5 1206,-520.5 1206,-501.5 1156,-501.5"/>
<text text-anchor="middle" x="1181" y="-508.5" font-family="Helvetica,sans-Serif" font-size="10.00" fill="#000000">bits_set</text>
</g>
<!-- bam_filtering -->
<g id="node55" class="node">
<title>bam_filtering</title>
<polygon fill="#f3cea1" stroke="#000000" points="1187.5,-133.5 1187.5,-152.5 1258.5,-152.5 1258.5,-133.5 1187.5,-133.5"/>
<text text-anchor="middle" x="1223" y="-140.5" font-family="Helvetica,sans-Serif" font-size="10.00" fill="#000000">bam_filtering</text>
</g>
<!-- bits_set&#45;&gt;bam_filtering -->
<g id="edge20" class="edge">
<title>bits_set&#45;&gt;bam_filtering</title>
<path fill="none" stroke="#000000" d="M1195.2193,-501.4405C1207.4038,-491.9894 1223,-476.3148 1223,-458 1223,-458 1223,-458 1223,-188 1223,-178.6689 1223,-168.2495 1223,-159.7884"/>
<polygon fill="#000000" stroke="#000000" points="1225.4501,-159.6559 1223,-152.656 1220.5501,-159.656 1225.4501,-159.6559"/>
<text text-anchor="middle" x="1237" y="-321.1" font-family="Helvetica,sans-Serif" font-size="8.00" fill="#000000">bits_set</text>
</g>
<!-- threads_fastp -->
<g id="node4" class="node">
<title>threads_fastp</title>
<polygon fill="#94ddf4" stroke="#000000" points="148,-501.5 148,-520.5 222,-520.5 222,-501.5 148,-501.5"/>
<text text-anchor="middle" x="185" y="-508.5" font-family="Helvetica,sans-Serif" font-size="10.00" fill="#000000">threads_fastp</text>
</g>
<!-- trimmed_fastq -->
<g id="node64" class="node">
<title>trimmed_fastq</title>
<polygon fill="#f3cea1" stroke="#000000" points="366,-448.5 366,-467.5 444,-467.5 444,-448.5 366,-448.5"/>
<text text-anchor="middle" x="405" y="-455.5" font-family="Helvetica,sans-Serif" font-size="10.00" fill="#000000">trimmed_fastq</text>
</g>
<!-- threads_fastp&#45;&gt;trimmed_fastq -->
<g id="edge73" class="edge">
<title>threads_fastp&#45;&gt;trimmed_fastq</title>
<path fill="none" stroke="#000000" d="M206.6828,-501.4237C212.9127,-498.6877 219.72,-495.7129 226,-493 243.7328,-485.3395 247.3592,-481.0653 266,-476 296.2858,-467.7704 331.3363,-463.2643 358.6635,-460.8186"/>
<polygon fill="#000000" stroke="#000000" points="359.0288,-463.2465 365.7955,-460.2112 358.6128,-458.3642 359.0288,-463.2465"/>
<text text-anchor="middle" x="290.5" y="-478.6" font-family="Helvetica,sans-Serif" font-size="8.00" fill="#000000">threads_fastp</text>
</g>
<!-- manta_max_len -->
<g id="node5" class="node">
<title>manta_max_len</title>
<polygon fill="#94ddf4" stroke="#000000" points="2770.5,-501.5 2770.5,-520.5 2855.5,-520.5 2855.5,-501.5 2770.5,-501.5"/>
<text text-anchor="middle" x="2813" y="-508.5" font-family="Helvetica,sans-Serif" font-size="10.00" fill="#000000">manta_max_len</text>
</g>
<!-- manta_max_len&#45;&gt;cnv_manta -->
<g id="edge49" class="edge">
<title>manta_max_len&#45;&gt;cnv_manta</title>
<path fill="none" stroke="#000000" d="M2790.8001,-501.4522C2783.3306,-498.4719 2774.8895,-495.3525 2767,-493 2730.6636,-482.1651 2600,-495.9174 2600,-458 2600,-458 2600,-458 2600,-143 2600,-113.112 2508.1242,-103.0078 2453.5169,-99.6418"/>
<polygon fill="#000000" stroke="#000000" points="2453.5291,-97.1884 2446.3987,-99.228 2453.2447,-102.0802 2453.5291,-97.1884"/>
<text text-anchor="middle" x="2615.5" y="-298.6" font-family="Helvetica,sans-Serif" font-size="8.00" fill="#000000">max_len</text>
</g>
<!-- bwt_algorithm -->
<g id="node6" class="node">
<title>bwt_algorithm</title>
<polygon fill="#94ddf4" stroke="#000000" points="2183.5,-501.5 2183.5,-520.5 2260.5,-520.5 2260.5,-501.5 2183.5,-501.5"/>
<text text-anchor="middle" x="2222" y="-508.5" font-family="Helvetica,sans-Serif" font-size="10.00" fill="#000000">bwt_algorithm</text>
</g>
<!-- bwa_index -->
<g id="node53" class="node">
<title>bwa_index</title>
<polygon fill="#f3cea1" stroke="#000000" points="1913,-448.5 1913,-467.5 1975,-467.5 1975,-448.5 1913,-448.5"/>
<text text-anchor="middle" x="1944" y="-455.5" font-family="Helvetica,sans-Serif" font-size="10.00" fill="#000000">bwa_index</text>
</g>
<!-- bwt_algorithm&#45;&gt;bwa_index -->
<g id="edge1" class="edge">
<title>bwt_algorithm&#45;&gt;bwa_index</title>
<path fill="none" stroke="#000000" d="M2209.6868,-501.4127C2198.2753,-493.1064 2180.474,-481.5726 2163,-476 2130.4567,-465.6216 2036.2799,-460.9551 1982.6217,-459.0878"/>
<polygon fill="#000000" stroke="#000000" points="1982.4082,-456.6293 1975.3298,-458.8425 1982.2435,-461.5265 1982.4082,-456.6293"/>
<text text-anchor="middle" x="2200" y="-478.6" font-family="Helvetica,sans-Serif" font-size="8.00" fill="#000000">algoType</text>
</g>
<!-- threads_bwa_mem -->
<g id="node7" class="node">
<title>threads_bwa_mem</title>
<polygon fill="#94ddf4" stroke="#000000" points="274,-501.5 274,-520.5 372,-520.5 372,-501.5 274,-501.5"/>
<text text-anchor="middle" x="323" y="-508.5" font-family="Helvetica,sans-Serif" font-size="10.00" fill="#000000">threads_bwa_mem</text>
</g>
<!-- bwa_mem -->
<g id="node59" class="node">
<title>bwa_mem</title>
<polygon fill="#f3cea1" stroke="#000000" points="573.5,-403.5 573.5,-422.5 634.5,-422.5 634.5,-403.5 573.5,-403.5"/>
<text text-anchor="middle" x="604" y="-410.5" font-family="Helvetica,sans-Serif" font-size="10.00" fill="#000000">bwa_mem</text>
</g>
<!-- threads_bwa_mem&#45;&gt;bwa_mem -->
<g id="edge41" class="edge">
<title>threads_bwa_mem&#45;&gt;bwa_mem</title>
<path fill="none" stroke="#000000" d="M348.9429,-501.4419C357.4882,-498.4949 367.0852,-495.3979 376,-493 404.8917,-485.2287 621.0404,-463.1442 640,-440 644.0721,-435.0292 641.8113,-430.4654 636.8668,-426.5602"/>
<polygon fill="#000000" stroke="#000000" points="637.8432,-424.278 630.6208,-422.593 635.2161,-428.4142 637.8432,-424.278"/>
<text text-anchor="middle" x="638" y="-456.1" font-family="Helvetica,sans-Serif" font-size="8.00" fill="#000000">threads</text>
</g>
<!-- threads_samtools -->
<g id="node8" class="node">
<title>threads_samtools</title>
<polygon fill="#94ddf4" stroke="#000000" points="672,-501.5 672,-520.5 764,-520.5 764,-501.5 672,-501.5"/>
<text text-anchor="middle" x="718" y="-508.5" font-family="Helvetica,sans-Serif" font-size="10.00" fill="#000000">threads_samtools</text>
</g>
<!-- threads_samtools&#45;&gt;bam_filtering -->
<g id="edge21" class="edge">
<title>threads_samtools&#45;&gt;bam_filtering</title>
<path fill="none" stroke="#000000" d="M741.891,-501.4383C750.0733,-498.4222 759.3474,-495.2846 768,-493 812.2599,-481.3138 971,-503.7767 971,-458 971,-458 971,-458 971,-345.5 971,-301.2979 971.2225,-282.7265 1002,-251 1052.0217,-199.436 1131.735,-169.0038 1180.5165,-154.1971"/>
<polygon fill="#000000" stroke="#000000" points="1181.4711,-156.4694 1187.4821,-152.1253 1180.0741,-151.7727 1181.4711,-156.4694"/>
<text text-anchor="middle" x="985" y="-321.1" font-family="Helvetica,sans-Serif" font-size="8.00" fill="#000000">threads</text>
</g>
<!-- samtools_sort -->
<g id="node56" class="node">
<title>samtools_sort</title>
<polygon fill="#f3cea1" stroke="#000000" points="654,-313.5 654,-332.5 730,-332.5 730,-313.5 654,-313.5"/>
<text text-anchor="middle" x="692" y="-320.5" font-family="Helvetica,sans-Serif" font-size="10.00" fill="#000000">samtools_sort</text>
</g>
<!-- threads_samtools&#45;&gt;samtools_sort -->
<g id="edge24" class="edge">
<title>threads_samtools&#45;&gt;samtools_sort</title>
<path fill="none" stroke="#000000" d="M726.543,-501.2009C734.4531,-491.095 745,-474.5225 745,-458 745,-458 745,-458 745,-368 745,-354.0207 734.1531,-343.48 722.2734,-336.1277"/>
<polygon fill="#000000" stroke="#000000" points="723.3151,-333.9017 716.0189,-332.5722 720.8935,-338.1616 723.3151,-333.9017"/>
<text text-anchor="middle" x="759" y="-411.1" font-family="Helvetica,sans-Serif" font-size="8.00" fill="#000000">threads</text>
</g>
<!-- samtools_view_sam2bam -->
<g id="node57" class="node">
<title>samtools_view_sam2bam</title>
<polygon fill="#f3cea1" stroke="#000000" points="580,-358.5 580,-377.5 706,-377.5 706,-358.5 580,-358.5"/>
<text text-anchor="middle" x="643" y="-365.5" font-family="Helvetica,sans-Serif" font-size="10.00" fill="#000000">samtools_view_sam2bam</text>
</g>
<!-- threads_samtools&#45;&gt;samtools_view_sam2bam -->
<g id="edge30" class="edge">
<title>threads_samtools&#45;&gt;samtools_view_sam2bam</title>
<path fill="none" stroke="#000000" d="M718.499,-501.4554C719.164,-478.4794 717.6022,-419.5203 687,-386 685.4419,-384.2933 683.6983,-382.7446 681.8283,-381.3398"/>
<polygon fill="#000000" stroke="#000000" points="683.1149,-379.2545 675.8988,-377.5428 680.4725,-383.3809 683.1149,-379.2545"/>
<text text-anchor="middle" x="726" y="-433.6" font-family="Helvetica,sans-Serif" font-size="8.00" fill="#000000">threads</text>
</g>
<!-- samtools_merge -->
<g id="node65" class="node">
<title>samtools_merge</title>
<polygon fill="#fafad2" stroke="#000000" points="680.5,-268.5 680.5,-287.5 767.5,-287.5 767.5,-268.5 680.5,-268.5"/>
<text text-anchor="middle" x="724" y="-275.5" font-family="Helvetica,sans-Serif" font-size="10.00" fill="#000000">samtools_merge</text>
</g>
<!-- threads_samtools&#45;&gt;samtools_merge -->
<g id="edge60" class="edge">
<title>threads_samtools&#45;&gt;samtools_merge</title>
<path fill="none" stroke="#000000" d="M741.959,-501.4322C776.1889,-487.5855 835,-463.0592 835,-458 835,-458 835,-458 835,-345.5 835,-321.2411 831.0328,-311.0415 812,-296 805.8464,-291.1368 790.9411,-287.3162 775.1122,-284.4698"/>
<polygon fill="#000000" stroke="#000000" points="775.1137,-281.9852 767.8026,-283.2303 774.2945,-286.8162 775.1137,-281.9852"/>
<text text-anchor="middle" x="849" y="-388.6" font-family="Helvetica,sans-Serif" font-size="8.00" fill="#000000">threads</text>
</g>
<!-- fastq2 -->
<g id="node9" class="node">
<title>fastq2</title>
<polygon fill="#94ddf4" stroke="#000000" points="226.5,-501.5 226.5,-520.5 269.5,-520.5 269.5,-501.5 226.5,-501.5"/>
<text text-anchor="middle" x="248" y="-508.5" font-family="Helvetica,sans-Serif" font-size="10.00" fill="#000000">fastq2</text>
</g>
<!-- fastq2&#45;&gt;trimmed_fastq -->
<g id="edge72" class="edge">
<title>fastq2&#45;&gt;trimmed_fastq</title>
<path fill="none" stroke="#000000" d="M259.0577,-501.436C263.1918,-498.3088 268.0823,-495.1023 273,-493 290.8743,-485.3588 297.1146,-489.6065 316,-485 333.8438,-480.6476 353.402,-474.8323 369.628,-469.7135"/>
<polygon fill="#000000" stroke="#000000" points="370.4368,-472.0273 376.3633,-467.5687 368.9499,-467.3583 370.4368,-472.0273"/>
<text text-anchor="middle" x="360" y="-478.6" font-family="Helvetica,sans-Serif" font-size="8.00" fill="#000000">fastq2</text>
</g>
<!-- read_group -->
<g id="node10" class="node">
<title>read_group</title>
<polygon fill="#94ddf4" stroke="#000000" points="376.5,-501.5 376.5,-520.5 441.5,-520.5 441.5,-501.5 376.5,-501.5"/>
<text text-anchor="middle" x="409" y="-508.5" font-family="Helvetica,sans-Serif" font-size="10.00" fill="#000000">read_group</text>
</g>
<!-- read_group&#45;&gt;bwa_mem -->
<g id="edge42" class="edge">
<title>read_group&#45;&gt;bwa_mem</title>
<path fill="none" stroke="#000000" d="M424.5621,-501.4229C430.7037,-498.1316 437.9643,-494.8197 445,-493 485.4835,-482.5296 593.4327,-498.5268 633,-485 645.3687,-480.7715 650.9958,-479.6109 657,-468 664.5976,-453.3079 663.9675,-443.3812 653,-431 649.7296,-427.308 645.6353,-424.3723 641.2151,-422.0382"/>
<polygon fill="#000000" stroke="#000000" points="641.9516,-419.6824 634.5639,-419.0308 639.9328,-424.1473 641.9516,-419.6824"/>
<text text-anchor="middle" x="683.5" y="-456.1" font-family="Helvetica,sans-Serif" font-size="8.00" fill="#000000">read_group</text>
</g>
<!-- threads_gridss -->
<g id="node11" class="node">
<title>threads_gridss</title>
<polygon fill="#94ddf4" stroke="#000000" points="2860,-501.5 2860,-520.5 2938,-520.5 2938,-501.5 2860,-501.5"/>
<text text-anchor="middle" x="2899" y="-508.5" font-family="Helvetica,sans-Serif" font-size="10.00" fill="#000000">threads_gridss</text>
</g>
<!-- threads_gridss&#45;&gt;cnv_gridss -->
<g id="edge16" class="edge">
<title>threads_gridss&#45;&gt;cnv_gridss</title>
<path fill="none" stroke="#000000" d="M2899,-501.2317C2899,-490.5974 2899,-473.0903 2899,-458 2899,-458 2899,-458 2899,-143 2899,-133.6689 2899,-123.2495 2899,-114.7884"/>
<polygon fill="#000000" stroke="#000000" points="2901.4501,-114.6559 2899,-107.656 2896.5501,-114.656 2901.4501,-114.6559"/>
<text text-anchor="middle" x="2913" y="-298.6" font-family="Helvetica,sans-Serif" font-size="8.00" fill="#000000">threads</text>
</g>
<!-- samples -->
<g id="node12" class="node">
<title>samples</title>
<polygon fill="#94ddf4" stroke="#000000" points="2350,-501.5 2350,-520.5 2402,-520.5 2402,-501.5 2350,-501.5"/>
<text text-anchor="middle" x="2376" y="-508.5" font-family="Helvetica,sans-Serif" font-size="10.00" fill="#000000">samples</text>
</g>
<!-- samples&#45;&gt;cnv_gridss -->
<g id="edge13" class="edge">
<title>samples&#45;&gt;cnv_gridss</title>
<path fill="none" stroke="#000000" d="M2377.1137,-501.3519C2379.1176,-487.9401 2384.4676,-463.5604 2398,-448 2506.4158,-323.337 2716,-420.7116 2716,-255.5 2716,-255.5 2716,-255.5 2716,-143 2716,-113.471 2806.9856,-103.2113 2860.6459,-99.7281"/>
<polygon fill="#000000" stroke="#000000" points="2861.1195,-102.1538 2867.9565,-99.2803 2860.8198,-97.263 2861.1195,-102.1538"/>
<text text-anchor="middle" x="2725" y="-298.6" font-family="Helvetica,sans-Serif" font-size="8.00" fill="#000000">samples</text>
</g>
<!-- cnv_codex -->
<g id="node58" class="node">
<title>cnv_codex</title>
<polygon fill="#f3cea1" stroke="#000000" points="1363,-88.5 1363,-107.5 1425,-107.5 1425,-88.5 1363,-88.5"/>
<text text-anchor="middle" x="1394" y="-95.5" font-family="Helvetica,sans-Serif" font-size="10.00" fill="#000000">cnv_codex</text>
</g>
<!-- samples&#45;&gt;cnv_codex -->
<g id="edge32" class="edge">
<title>samples&#45;&gt;cnv_codex</title>
<path fill="none" stroke="#000000" d="M2369.7903,-501.4116C2343.6054,-460.976 2243.5216,-306.385 2243,-305 2238.7244,-293.6475 2239,-290.131 2239,-278 2239,-278 2239,-278 2239,-143 2239,-122.5078 1596.7626,-103.544 1432.0996,-99.0187"/>
<polygon fill="#000000" stroke="#000000" points="1432.1406,-96.569 1425.0761,-98.8265 1432.0065,-101.4671 1432.1406,-96.569"/>
<text text-anchor="middle" x="2258" y="-298.6" font-family="Helvetica,sans-Serif" font-size="8.00" fill="#000000">samples</text>
</g>
<!-- samples&#45;&gt;cnv_manta -->
<g id="edge54" class="edge">
<title>samples&#45;&gt;cnv_manta</title>
<path fill="none" stroke="#000000" d="M2375.7054,-501.2327C2375.4104,-490.5993 2375,-473.093 2375,-458 2375,-458 2375,-458 2375,-323 2375,-292.9868 2377,-285.5132 2377,-255.5 2377,-255.5 2377,-255.5 2377,-143 2377,-130.7712 2385.2531,-120.0559 2393.9637,-112.1522"/>
<polygon fill="#000000" stroke="#000000" points="2395.5921,-113.9841 2399.3766,-107.606 2392.4407,-110.2319 2395.5921,-113.9841"/>
<text text-anchor="middle" x="2390" y="-298.6" font-family="Helvetica,sans-Serif" font-size="8.00" fill="#000000">samples</text>
</g>
<!-- cnv_exomedepth -->
<g id="node63" class="node">
<title>cnv_exomedepth</title>
<polygon fill="#f3cea1" stroke="#000000" points="1045.5,-88.5 1045.5,-107.5 1134.5,-107.5 1134.5,-88.5 1045.5,-88.5"/>
<text text-anchor="middle" x="1090" y="-95.5" font-family="Helvetica,sans-Serif" font-size="10.00" fill="#000000">cnv_exomedepth</text>
</g>
<!-- samples&#45;&gt;cnv_exomedepth -->
<g id="edge68" class="edge">
<title>samples&#45;&gt;cnv_exomedepth</title>
<path fill="none" stroke="#000000" d="M2361.7449,-501.4512C2356.8884,-498.4709 2351.3357,-495.3517 2346,-493 2321.8094,-482.338 2314.7089,-482.1576 2289,-476 2276.1217,-472.9155 1359.8301,-314.8688 1351,-305 1340.3055,-293.0475 1346,-249.0385 1346,-233 1346,-233 1346,-233 1346,-143 1346,-122.4536 1216.4316,-108.366 1141.6514,-101.9463"/>
<polygon fill="#000000" stroke="#000000" points="1141.7735,-99.498 1134.5918,-101.3491 1141.3603,-104.3806 1141.7735,-99.498"/>
<text text-anchor="middle" x="1366" y="-298.6" font-family="Helvetica,sans-Serif" font-size="8.00" fill="#000000">samples</text>
</g>
<!-- enable_exomeDepth -->
<g id="node13" class="node">
<title>enable_exomeDepth</title>
<polygon fill="#94ddf4" stroke="#000000" points="768,-501.5 768,-520.5 872,-520.5 872,-501.5 768,-501.5"/>
<text text-anchor="middle" x="820" y="-508.5" font-family="Helvetica,sans-Serif" font-size="10.00" fill="#000000">enable_exomeDepth</text>
</g>
<!-- enable_exomeDepth&#45;&gt;cnv_exomedepth -->
<g id="edge65" class="edge">
<title>enable_exomeDepth&#45;&gt;cnv_exomedepth</title>
<path fill="none" stroke="#000000" d="M845.9164,-501.4747C855.2846,-498.3512 866.014,-495.1371 876,-493 907.484,-486.2622 916.9969,-493.6863 948,-485 975.3797,-477.3289 1006,-486.434 1006,-458 1006,-458 1006,-458 1006,-143 1006,-125.1814 1020.8681,-114.3909 1038.0939,-107.8687"/>
<polygon fill="#000000" stroke="#000000" points="1039.2182,-110.0736 1045.049,-105.4905 1037.6328,-105.4371 1039.2182,-110.0736"/>
<text text-anchor="middle" x="1043.5" y="-298.6" font-family="Helvetica,sans-Serif" font-size="8.00" fill="#000000">enable_exomeDepth</text>
</g>
<!-- reference_amb -->
<g id="node14" class="node">
<title>reference_amb</title>
<polygon fill="#94ddf4" stroke="#000000" points="2264.5,-501.5 2264.5,-520.5 2345.5,-520.5 2345.5,-501.5 2264.5,-501.5"/>
<text text-anchor="middle" x="2305" y="-508.5" font-family="Helvetica,sans-Serif" font-size="10.00" fill="#000000">reference_amb</text>
</g>
<!-- reference_amb&#45;&gt;bwa_index -->
<g id="edge8" class="edge">
<title>reference_amb&#45;&gt;bwa_index</title>
<path fill="none" stroke="#000000" d="M2282.2959,-501.3141C2275.4907,-498.519 2267.9802,-495.5402 2261,-493 2250.0372,-489.0105 2246.8048,-489.3994 2236,-485 2227.7161,-481.627 2226.6329,-478.3393 2218,-476 2174.6918,-464.2644 2046.9198,-460.0551 1982.3194,-458.649"/>
<polygon fill="#000000" stroke="#000000" points="1982.1901,-456.1959 1975.1403,-458.4987 1982.0874,-461.0948 1982.1901,-456.1959"/>
<text text-anchor="middle" x="2264" y="-478.6" font-family="Helvetica,sans-Serif" font-size="8.00" fill="#000000">reference_amb</text>
</g>
<!-- reference_fasta -->
<g id="node15" class="node">
<title>reference_fasta</title>
<polygon fill="#94ddf4" stroke="#000000" points="1578.5,-501.5 1578.5,-520.5 1661.5,-520.5 1661.5,-501.5 1578.5,-501.5"/>
<text text-anchor="middle" x="1620" y="-508.5" font-family="Helvetica,sans-Serif" font-size="10.00" fill="#000000">reference_fasta</text>
</g>
<!-- reference_fasta&#45;&gt;bwa_index -->
<g id="edge9" class="edge">
<title>reference_fasta&#45;&gt;bwa_index</title>
<path fill="none" stroke="#000000" d="M1633.0007,-501.362C1645.0337,-493.0215 1663.7664,-481.4661 1682,-476 1722.7081,-463.7964 1843.0642,-459.8212 1905.4801,-458.5618"/>
<polygon fill="#000000" stroke="#000000" points="1905.8437,-461.0053 1912.7954,-458.4213 1905.7496,-456.1062 1905.8437,-461.0053"/>
<text text-anchor="middle" x="1711" y="-478.6" font-family="Helvetica,sans-Serif" font-size="8.00" fill="#000000">reference_fasta</text>
</g>
<!-- gridss_max_len -->
<g id="node16" class="node">
<title>gridss_max_len</title>
<polygon fill="#94ddf4" stroke="#000000" points="2942.5,-501.5 2942.5,-520.5 3025.5,-520.5 3025.5,-501.5 2942.5,-501.5"/>
<text text-anchor="middle" x="2984" y="-508.5" font-family="Helvetica,sans-Serif" font-size="10.00" fill="#000000">gridss_max_len</text>
</g>
<!-- gridss_max_len&#45;&gt;cnv_gridss -->
<g id="edge11" class="edge">
<title>gridss_max_len&#45;&gt;cnv_gridss</title>
<path fill="none" stroke="#000000" d="M2976.6688,-501.4289C2969.6108,-491.2408 2960,-474.3633 2960,-458 2960,-458 2960,-458 2960,-143 2960,-128.2977 2948.3828,-117.8575 2935.2879,-110.7595"/>
<polygon fill="#000000" stroke="#000000" points="2936.1455,-108.4502 2928.7852,-107.5394 2933.971,-112.8413 2936.1455,-108.4502"/>
<text text-anchor="middle" x="2975.5" y="-298.6" font-family="Helvetica,sans-Serif" font-size="8.00" fill="#000000">max_len</text>
</g>
<!-- manta_exome -->
<g id="node17" class="node">
<title>manta_exome</title>
<polygon fill="#94ddf4" stroke="#000000" points="2442.5,-501.5 2442.5,-520.5 2519.5,-520.5 2519.5,-501.5 2442.5,-501.5"/>
<text text-anchor="middle" x="2481" y="-508.5" font-family="Helvetica,sans-Serif" font-size="10.00" fill="#000000">manta_exome</text>
</g>
<!-- manta_exome&#45;&gt;cnv_manta -->
<g id="edge48" class="edge">
<title>manta_exome&#45;&gt;cnv_manta</title>
<path fill="none" stroke="#000000" d="M2465.6109,-501.2344C2452.9226,-491.8555 2437,-476.4169 2437,-458 2437,-458 2437,-458 2437,-143 2437,-132.3727 2431.8511,-121.728 2426.4256,-113.4614"/>
<polygon fill="#000000" stroke="#000000" points="2428.3494,-111.9385 2422.3035,-107.6431 2424.3511,-114.7712 2428.3494,-111.9385"/>
<text text-anchor="middle" x="2449.5" y="-298.6" font-family="Helvetica,sans-Serif" font-size="8.00" fill="#000000">exome</text>
</g>
<!-- bed -->
<g id="node18" class="node">
<title>bed</title>
<polygon fill="#94ddf4" stroke="#000000" points="2406,-501.5 2406,-520.5 2438,-520.5 2438,-501.5 2406,-501.5"/>
<text text-anchor="middle" x="2422" y="-508.5" font-family="Helvetica,sans-Serif" font-size="10.00" fill="#000000">bed</text>
</g>
<!-- bed&#45;&gt;cnv_codex -->
<g id="edge33" class="edge">
<title>bed&#45;&gt;cnv_codex</title>
<path fill="none" stroke="#000000" d="M2419.048,-501.4116C2412.927,-482.1295 2397.8385,-437.552 2379,-403 2348.9505,-347.8858 2325.8389,-343.7571 2297,-288 2263.4861,-223.2042 2300.8674,-177.4189 2243,-133 2210.4941,-108.0485 1594.6808,-100.0424 1432.7425,-98.364"/>
<polygon fill="#000000" stroke="#000000" points="1432.403,-95.9105 1425.3784,-98.2888 1432.353,-100.8103 1432.403,-95.9105"/>
<text text-anchor="middle" x="2313" y="-298.6" font-family="Helvetica,sans-Serif" font-size="8.00" fill="#000000">bed</text>
</g>
<!-- bed&#45;&gt;cnv_manta -->
<g id="edge51" class="edge">
<title>bed&#45;&gt;cnv_manta</title>
<path fill="none" stroke="#000000" d="M2419.643,-501.2979C2417.2832,-490.7202 2414,-473.2612 2414,-458 2414,-458 2414,-458 2414,-143 2414,-133.6689 2414,-123.2495 2414,-114.7884"/>
<polygon fill="#000000" stroke="#000000" points="2416.4501,-114.6559 2414,-107.656 2411.5501,-114.656 2416.4501,-114.6559"/>
<text text-anchor="middle" x="2421" y="-298.6" font-family="Helvetica,sans-Serif" font-size="8.00" fill="#000000">bed</text>
</g>
<!-- codex_min_len -->
<g id="node19" class="node">
<title>codex_min_len</title>
<polygon fill="#94ddf4" stroke="#000000" points="990.5,-501.5 990.5,-520.5 1071.5,-520.5 1071.5,-501.5 990.5,-501.5"/>
<text text-anchor="middle" x="1031" y="-508.5" font-family="Helvetica,sans-Serif" font-size="10.00" fill="#000000">codex_min_len</text>
</g>
<!-- codex_min_len&#45;&gt;cnv_codex -->
<g id="edge34" class="edge">
<title>codex_min_len&#45;&gt;cnv_codex</title>
<path fill="none" stroke="#000000" d="M1052.7839,-501.3802C1081.1079,-488.5356 1127,-466.4243 1127,-458 1127,-458 1127,-458 1127,-323 1127,-263.6993 1103.0336,-203.8929 1160,-133 1172.3564,-117.6229 1181.8532,-120.747 1201,-116 1229.3501,-108.9713 1307.9932,-103.1983 1355.6885,-100.2099"/>
<polygon fill="#000000" stroke="#000000" points="1355.9426,-102.649 1362.7782,-99.7719 1355.6404,-97.7583 1355.9426,-102.649"/>
<text text-anchor="middle" x="1140" y="-298.6" font-family="Helvetica,sans-Serif" font-size="8.00" fill="#000000">min_len</text>
</g>
<!-- reference_bwt -->
<g id="node20" class="node">
<title>reference_bwt</title>
<polygon fill="#94ddf4" stroke="#000000" points="1665.5,-501.5 1665.5,-520.5 1742.5,-520.5 1742.5,-501.5 1665.5,-501.5"/>
<text text-anchor="middle" x="1704" y="-508.5" font-family="Helvetica,sans-Serif" font-size="10.00" fill="#000000">reference_bwt</text>
</g>
<!-- reference_bwt&#45;&gt;bwa_index -->
<g id="edge7" class="edge">
<title>reference_bwt&#45;&gt;bwa_index</title>
<path fill="none" stroke="#000000" d="M1715.3882,-501.4632C1725.9652,-493.1909 1742.5212,-481.6787 1759,-476 1785.2086,-466.9684 1859.5648,-461.9521 1905.6376,-459.6295"/>
<polygon fill="#000000" stroke="#000000" points="1905.9057,-462.0694 1912.7774,-459.2796 1905.6659,-457.1752 1905.9057,-462.0694"/>
<text text-anchor="middle" x="1785.5" y="-478.6" font-family="Helvetica,sans-Serif" font-size="8.00" fill="#000000">reference_bwt</text>
</g>
<!-- reference_sa -->
<g id="node21" class="node">
<title>reference_sa</title>
<polygon fill="#94ddf4" stroke="#000000" points="1747,-501.5 1747,-520.5 1819,-520.5 1819,-501.5 1747,-501.5"/>
<text text-anchor="middle" x="1783" y="-508.5" font-family="Helvetica,sans-Serif" font-size="10.00" fill="#000000">reference_sa</text>
</g>
<!-- reference_sa&#45;&gt;bwa_index -->
<g id="edge2" class="edge">
<title>reference_sa&#45;&gt;bwa_index</title>
<path fill="none" stroke="#000000" d="M1792.6595,-501.3249C1801.3821,-493.1974 1814.9679,-481.9798 1829,-476 1842.4819,-470.2547 1877.6009,-465.2417 1905.5122,-461.9754"/>
<polygon fill="#000000" stroke="#000000" points="1906.125,-464.3714 1912.8015,-461.1423 1905.5685,-459.5031 1906.125,-464.3714"/>
<text text-anchor="middle" x="1853.5" y="-478.6" font-family="Helvetica,sans-Serif" font-size="8.00" fill="#000000">reference_sa</text>
</g>
<!-- exomeDepth_min_len -->
<g id="node22" class="node">
<title>exomeDepth_min_len</title>
<polygon fill="#94ddf4" stroke="#000000" points="876,-501.5 876,-520.5 986,-520.5 986,-501.5 876,-501.5"/>
<text text-anchor="middle" x="931" y="-508.5" font-family="Helvetica,sans-Serif" font-size="10.00" fill="#000000">exomeDepth_min_len</text>
</g>
<!-- exomeDepth_min_len&#45;&gt;cnv_exomedepth -->
<g id="edge69" class="edge">
<title>exomeDepth_min_len&#45;&gt;cnv_exomedepth</title>
<path fill="none" stroke="#000000" d="M962.0343,-501.4582C1008.3062,-487.1214 1090,-461.3371 1090,-458 1090,-458 1090,-458 1090,-143 1090,-133.6689 1090,-123.2495 1090,-114.7884"/>
<polygon fill="#000000" stroke="#000000" points="1092.4501,-114.6559 1090,-107.656 1087.5501,-114.656 1092.4501,-114.6559"/>
<text text-anchor="middle" x="1104" y="-298.6" font-family="Helvetica,sans-Serif" font-size="8.00" fill="#000000">min_len</text>
</g>
<!-- fastq1 -->
<g id="node23" class="node">
<title>fastq1</title>
<polygon fill="#94ddf4" stroke="#000000" points="16.5,-501.5 16.5,-520.5 59.5,-520.5 59.5,-501.5 16.5,-501.5"/>
<text text-anchor="middle" x="38" y="-508.5" font-family="Helvetica,sans-Serif" font-size="10.00" fill="#000000">fastq1</text>
</g>
<!-- fastq1&#45;&gt;trimmed_fastq -->
<g id="edge74" class="edge">
<title>fastq1&#45;&gt;trimmed_fastq</title>
<path fill="none" stroke="#000000" d="M49.5976,-501.1523C53.626,-498.1521 58.3133,-495.0967 63,-493 94.991,-478.6884 105.3092,-480.9792 140,-476 216.0728,-465.0812 305.4099,-460.7503 358.499,-459.0572"/>
<polygon fill="#000000" stroke="#000000" points="358.8227,-461.4985 365.7444,-458.8354 358.6727,-456.6008 358.8227,-461.4985"/>
<text text-anchor="middle" x="151" y="-478.6" font-family="Helvetica,sans-Serif" font-size="8.00" fill="#000000">fastq1</text>
</g>
<!-- reference_ann -->
<g id="node24" class="node">
<title>reference_ann</title>
<polygon fill="#94ddf4" stroke="#000000" points="1823,-501.5 1823,-520.5 1901,-520.5 1901,-501.5 1823,-501.5"/>
<text text-anchor="middle" x="1862" y="-508.5" font-family="Helvetica,sans-Serif" font-size="10.00" fill="#000000">reference_ann</text>
</g>
<!-- reference_ann&#45;&gt;bwa_index -->
<g id="edge6" class="edge">
<title>reference_ann&#45;&gt;bwa_index</title>
<path fill="none" stroke="#000000" d="M1867.2178,-501.3834C1871.9441,-493.5164 1879.5978,-482.6417 1889,-476 1894.0724,-472.4169 1899.9018,-469.5147 1905.8269,-467.1735"/>
<polygon fill="#000000" stroke="#000000" points="1907.0259,-469.3463 1912.7869,-464.6756 1905.3707,-464.7343 1907.0259,-469.3463"/>
<text text-anchor="middle" x="1916" y="-478.6" font-family="Helvetica,sans-Serif" font-size="8.00" fill="#000000">reference_ann</text>
</g>
<!-- reference_pac -->
<g id="node25" class="node">
<title>reference_pac</title>
<polygon fill="#94ddf4" stroke="#000000" points="1905,-501.5 1905,-520.5 1983,-520.5 1983,-501.5 1905,-501.5"/>
<text text-anchor="middle" x="1944" y="-508.5" font-family="Helvetica,sans-Serif" font-size="10.00" fill="#000000">reference_pac</text>
</g>
<!-- reference_pac&#45;&gt;bwa_index -->
<g id="edge3" class="edge">
<title>reference_pac&#45;&gt;bwa_index</title>
<path fill="none" stroke="#000000" d="M1944,-501.279C1944,-493.8827 1944,-483.5239 1944,-474.7951"/>
<polygon fill="#000000" stroke="#000000" points="1946.4501,-474.6594 1944,-467.6594 1941.5501,-474.6594 1946.4501,-474.6594"/>
<text text-anchor="middle" x="1971" y="-478.6" font-family="Helvetica,sans-Serif" font-size="8.00" fill="#000000">reference_pac</text>
</g>
<!-- threads_fastqc -->
<g id="node26" class="node">
<title>threads_fastqc</title>
<polygon fill="#94ddf4" stroke="#000000" points="64,-501.5 64,-520.5 144,-520.5 144,-501.5 64,-501.5"/>
<text text-anchor="middle" x="104" y="-508.5" font-family="Helvetica,sans-Serif" font-size="10.00" fill="#000000">threads_fastqc</text>
</g>
<!-- threads_fastqc&#45;&gt;trimmed_fastq -->
<g id="edge75" class="edge">
<title>threads_fastqc&#45;&gt;trimmed_fastq</title>
<path fill="none" stroke="#000000" d="M122.6802,-501.3444C139.539,-493.1125 165.2645,-481.7299 189,-476 220.0691,-468.4997 305.0146,-463.0275 358.655,-460.1944"/>
<polygon fill="#000000" stroke="#000000" points="358.8198,-462.6393 365.683,-459.8288 358.5652,-457.7459 358.8198,-462.6393"/>
<text text-anchor="middle" x="216" y="-478.6" font-family="Helvetica,sans-Serif" font-size="8.00" fill="#000000">threads_fastqc</text>
</g>
<!-- min_mapping_quality -->
<g id="node27" class="node">
<title>min_mapping_quality</title>
<polygon fill="#94ddf4" stroke="#000000" points="1210.5,-501.5 1210.5,-520.5 1317.5,-520.5 1317.5,-501.5 1210.5,-501.5"/>
<text text-anchor="middle" x="1264" y="-508.5" font-family="Helvetica,sans-Serif" font-size="10.00" fill="#000000">min_mapping_quality</text>
</g>
<!-- min_mapping_quality&#45;&gt;bam_filtering -->
<g id="edge22" class="edge">
<title>min_mapping_quality&#45;&gt;bam_filtering</title>
<path fill="none" stroke="#000000" d="M1262.5269,-501.2576C1261.052,-490.6455 1259,-473.1573 1259,-458 1259,-458 1259,-458 1259,-188 1259,-176.1317 1251.2701,-165.6 1242.974,-157.7146"/>
<polygon fill="#000000" stroke="#000000" points="1244.1116,-155.4551 1237.2282,-152.6944 1240.8876,-159.1451 1244.1116,-155.4551"/>
<text text-anchor="middle" x="1297" y="-321.1" font-family="Helvetica,sans-Serif" font-size="8.00" fill="#000000">min_mapping_quality</text>
</g>
<!-- exomeDepth_max_len -->
<g id="node28" class="node">
<title>exomeDepth_max_len</title>
<polygon fill="#94ddf4" stroke="#000000" points="446,-501.5 446,-520.5 558,-520.5 558,-501.5 446,-501.5"/>
<text text-anchor="middle" x="502" y="-508.5" font-family="Helvetica,sans-Serif" font-size="10.00" fill="#000000">exomeDepth_max_len</text>
</g>
<!-- exomeDepth_max_len&#45;&gt;cnv_exomedepth -->
<g id="edge67" class="edge">
<title>exomeDepth_max_len&#45;&gt;cnv_exomedepth</title>
<path fill="none" stroke="#000000" d="M529.7969,-501.4202C539.837,-498.2915 551.327,-495.0881 562,-493 625.7488,-480.5279 647.0584,-495.3011 706,-468 749.214,-447.9837 780,-438.1246 780,-390.5 780,-390.5 780,-390.5 780,-143 780,-117.246 949.7288,-104.9668 1038.0079,-100.322"/>
<polygon fill="#000000" stroke="#000000" points="1038.3899,-102.7556 1045.2544,-99.9482 1038.1375,-97.8621 1038.3899,-102.7556"/>
<text text-anchor="middle" x="795.5" y="-298.6" font-family="Helvetica,sans-Serif" font-size="8.00" fill="#000000">max_len</text>
</g>
<!-- gridss_min_q -->
<g id="node29" class="node">
<title>gridss_min_q</title>
<polygon fill="#94ddf4" stroke="#000000" points="3029.5,-501.5 3029.5,-520.5 3102.5,-520.5 3102.5,-501.5 3029.5,-501.5"/>
<text text-anchor="middle" x="3066" y="-508.5" font-family="Helvetica,sans-Serif" font-size="10.00" fill="#000000">gridss_min_q</text>
</g>
<!-- gridss_min_q&#45;&gt;cnv_gridss -->
<g id="edge15" class="edge">
<title>gridss_min_q&#45;&gt;cnv_gridss</title>
<path fill="none" stroke="#000000" d="M3055.1946,-501.175C3045.5704,-491.3009 3033,-475.126 3033,-458 3033,-458 3033,-458 3033,-143 3033,-122.6696 2976.8688,-109.8055 2937.2645,-103.2593"/>
<polygon fill="#000000" stroke="#000000" points="2937.3782,-100.7964 2930.0791,-102.1101 2936.6043,-105.6349 2937.3782,-100.7964"/>
<text text-anchor="middle" x="3044" y="-298.6" font-family="Helvetica,sans-Serif" font-size="8.00" fill="#000000">min_q</text>
</g>
<!-- manta_min_len -->
<g id="node30" class="node">
<title>manta_min_len</title>
<polygon fill="#94ddf4" stroke="#000000" points="2523.5,-501.5 2523.5,-520.5 2606.5,-520.5 2606.5,-501.5 2523.5,-501.5"/>
<text text-anchor="middle" x="2565" y="-508.5" font-family="Helvetica,sans-Serif" font-size="10.00" fill="#000000">manta_min_len</text>
</g>
<!-- manta_min_len&#45;&gt;cnv_manta -->
<g id="edge52" class="edge">
<title>manta_min_len&#45;&gt;cnv_manta</title>
<path fill="none" stroke="#000000" d="M2540.5043,-501.3785C2526.5148,-495.7242 2510.4999,-488.9345 2504,-485 2487.7885,-475.1869 2471,-476.9502 2471,-458 2471,-458 2471,-458 2471,-143 2471,-128.5894 2459.6378,-118.0765 2447.0591,-110.8534"/>
<polygon fill="#000000" stroke="#000000" points="2448.1656,-108.6671 2440.8309,-107.5691 2445.88,-113.0014 2448.1656,-108.6671"/>
<text text-anchor="middle" x="2485" y="-298.6" font-family="Helvetica,sans-Serif" font-size="8.00" fill="#000000">min_len</text>
</g>
<!-- enable_codex -->
<g id="node31" class="node">
<title>enable_codex</title>
<polygon fill="#94ddf4" stroke="#000000" points="1076,-501.5 1076,-520.5 1152,-520.5 1152,-501.5 1076,-501.5"/>
<text text-anchor="middle" x="1114" y="-508.5" font-family="Helvetica,sans-Serif" font-size="10.00" fill="#000000">enable_codex</text>
</g>
<!-- enable_codex&#45;&gt;cnv_codex -->
<g id="edge35" class="edge">
<title>enable_codex&#45;&gt;cnv_codex</title>
<path fill="none" stroke="#000000" d="M1132.0511,-501.3858C1146.373,-492.3071 1164,-477.2277 1164,-458 1164,-458 1164,-458 1164,-143 1164,-123.705 1290.2799,-108.2972 1355.6994,-101.6098"/>
<polygon fill="#000000" stroke="#000000" points="1356.2622,-104.0156 1362.9812,-100.8758 1355.7707,-99.1403 1356.2622,-104.0156"/>
<text text-anchor="middle" x="1189.5" y="-298.6" font-family="Helvetica,sans-Serif" font-size="8.00" fill="#000000">enable_codex</text>
</g>
<!-- chromosome -->
<g id="node32" class="node">
<title>chromosome</title>
<polygon fill="#94ddf4" stroke="#000000" points="1322,-501.5 1322,-520.5 1394,-520.5 1394,-501.5 1322,-501.5"/>
<text text-anchor="middle" x="1358" y="-508.5" font-family="Helvetica,sans-Serif" font-size="10.00" fill="#000000">chromosome</text>
</g>
<!-- chromosome&#45;&gt;cnv_codex -->
<g id="edge37" class="edge">
<title>chromosome&#45;&gt;cnv_codex</title>
<path fill="none" stroke="#000000" d="M1366.8594,-501.2549C1375.0625,-491.191 1386,-474.6505 1386,-458 1386,-458 1386,-458 1386,-143 1386,-133.4259 1387.7771,-122.8805 1389.6561,-114.4061"/>
<polygon fill="#000000" stroke="#000000" points="1392.0459,-114.9464 1391.2916,-107.5685 1387.2804,-113.8065 1392.0459,-114.9464"/>
<text text-anchor="middle" x="1410" y="-298.6" font-family="Helvetica,sans-Serif" font-size="8.00" fill="#000000">chromosome</text>
</g>
<!-- enable_manta -->
<g id="node33" class="node">
<title>enable_manta</title>
<polygon fill="#94ddf4" stroke="#000000" points="2610.5,-501.5 2610.5,-520.5 2687.5,-520.5 2687.5,-501.5 2610.5,-501.5"/>
<text text-anchor="middle" x="2649" y="-508.5" font-family="Helvetica,sans-Serif" font-size="10.00" fill="#000000">enable_manta</text>
</g>
<!-- enable_manta&#45;&gt;cnv_manta -->
<g id="edge50" class="edge">
<title>enable_manta&#45;&gt;cnv_manta</title>
<path fill="none" stroke="#000000" d="M2629.2489,-501.4901C2622.3326,-498.4422 2614.4351,-495.2719 2607,-493 2562.3684,-479.362 2508,-504.6688 2508,-458 2508,-458 2508,-458 2508,-143 2508,-130.0866 2478.7743,-117.5831 2452.9151,-109.0472"/>
<polygon fill="#000000" stroke="#000000" points="2453.5004,-106.6621 2446.0866,-106.8565 2452.0035,-111.3278 2453.5004,-106.6621"/>
<text text-anchor="middle" x="2534" y="-298.6" font-family="Helvetica,sans-Serif" font-size="8.00" fill="#000000">enable_manta</text>
</g>
<!-- codex_min_lratio -->
<g id="node34" class="node">
<title>codex_min_lratio</title>
<polygon fill="#94ddf4" stroke="#000000" points="1398.5,-501.5 1398.5,-520.5 1487.5,-520.5 1487.5,-501.5 1398.5,-501.5"/>
<text text-anchor="middle" x="1443" y="-508.5" font-family="Helvetica,sans-Serif" font-size="10.00" fill="#000000">codex_min_lratio</text>
</g>
<!-- codex_min_lratio&#45;&gt;cnv_codex -->
<g id="edge36" class="edge">
<title>codex_min_lratio&#45;&gt;cnv_codex</title>
<path fill="none" stroke="#000000" d="M1443,-501.2317C1443,-490.5974 1443,-473.0903 1443,-458 1443,-458 1443,-458 1443,-143 1443,-129.454 1432.7157,-118.8749 1421.5703,-111.3873"/>
<polygon fill="#000000" stroke="#000000" points="1422.5929,-109.1394 1415.3496,-107.5464 1420.0186,-113.3087 1422.5929,-109.1394"/>
<text text-anchor="middle" x="1460.5" y="-298.6" font-family="Helvetica,sans-Serif" font-size="8.00" fill="#000000">min_lratio</text>
</g>
<!-- reference_fai -->
<g id="node35" class="node">
<title>reference_fai</title>
<polygon fill="#94ddf4" stroke="#000000" points="1987.5,-501.5 1987.5,-520.5 2060.5,-520.5 2060.5,-501.5 1987.5,-501.5"/>
<text text-anchor="middle" x="2024" y="-508.5" font-family="Helvetica,sans-Serif" font-size="10.00" fill="#000000">reference_fai</text>
</g>
<!-- reference_fai&#45;&gt;bwa_index -->
<g id="edge5" class="edge">
<title>reference_fai&#45;&gt;bwa_index</title>
<path fill="none" stroke="#000000" d="M2019.3345,-501.3773C2015.0594,-493.5066 2008.0281,-482.6299 1999,-476 1993.8262,-472.2005 1987.8091,-469.1764 1981.6919,-466.7772"/>
<polygon fill="#000000" stroke="#000000" points="1982.4662,-464.4524 1975.05,-464.4121 1980.8224,-469.0684 1982.4662,-464.4524"/>
<text text-anchor="middle" x="2032.5" y="-478.6" font-family="Helvetica,sans-Serif" font-size="8.00" fill="#000000">reference_fai</text>
</g>
<!-- gridss_min_len -->
<g id="node36" class="node">
<title>gridss_min_len</title>
<polygon fill="#94ddf4" stroke="#000000" points="3107,-501.5 3107,-520.5 3187,-520.5 3187,-501.5 3107,-501.5"/>
<text text-anchor="middle" x="3147" y="-508.5" font-family="Helvetica,sans-Serif" font-size="10.00" fill="#000000">gridss_min_len</text>
</g>
<!-- gridss_min_len&#45;&gt;cnv_gridss -->
<g id="edge10" class="edge">
<title>gridss_min_len&#45;&gt;cnv_gridss</title>
<path fill="none" stroke="#000000" d="M3132.7807,-501.4405C3120.5962,-491.9894 3105,-476.3148 3105,-458 3105,-458 3105,-458 3105,-143 3105,-126.027 2996.8834,-110.0287 2937.3019,-102.5009"/>
<polygon fill="#000000" stroke="#000000" points="2937.5365,-100.0613 2930.287,-101.6254 2936.9296,-104.9236 2937.5365,-100.0613"/>
<text text-anchor="middle" x="3119" y="-298.6" font-family="Helvetica,sans-Serif" font-size="8.00" fill="#000000">min_len</text>
</g>
<!-- generate_bwa_indexes -->
<g id="node37" class="node">
<title>generate_bwa_indexes</title>
<polygon fill="#94ddf4" stroke="#000000" points="2065,-501.5 2065,-520.5 2179,-520.5 2179,-501.5 2065,-501.5"/>
<text text-anchor="middle" x="2122" y="-508.5" font-family="Helvetica,sans-Serif" font-size="10.00" fill="#000000">generate_bwa_indexes</text>
</g>
<!-- generate_bwa_indexes&#45;&gt;bwa_index -->
<g id="edge4" class="edge">
<title>generate_bwa_indexes&#45;&gt;bwa_index</title>
<path fill="none" stroke="#000000" d="M2107.9156,-501.4392C2095.3662,-493.3851 2076.22,-482.2107 2058,-476 2033.5281,-467.6582 2004.7632,-463.1526 1982.2503,-460.7352"/>
<polygon fill="#000000" stroke="#000000" points="1982.3845,-458.2864 1975.174,-460.0216 1981.8928,-463.1617 1982.3845,-458.2864"/>
<text text-anchor="middle" x="2120" y="-478.6" font-family="Helvetica,sans-Serif" font-size="8.00" fill="#000000">generate_bwa_indexes</text>
</g>
<!-- codex_max_len -->
<g id="node38" class="node">
<title>codex_max_len</title>
<polygon fill="#94ddf4" stroke="#000000" points="1491.5,-501.5 1491.5,-520.5 1574.5,-520.5 1574.5,-501.5 1491.5,-501.5"/>
<text text-anchor="middle" x="1533" y="-508.5" font-family="Helvetica,sans-Serif" font-size="10.00" fill="#000000">codex_max_len</text>
</g>
<!-- codex_max_len&#45;&gt;cnv_codex -->
<g id="edge39" class="edge">
<title>codex_max_len&#45;&gt;cnv_codex</title>
<path fill="none" stroke="#000000" d="M1516.9114,-501.3992C1503.6464,-492.1312 1487,-476.763 1487,-458 1487,-458 1487,-458 1487,-143 1487,-130.1159 1457.7121,-117.5209 1432.008,-108.948"/>
<polygon fill="#000000" stroke="#000000" points="1432.6408,-106.5776 1425.2264,-106.7487 1431.1292,-111.2387 1432.6408,-106.5776"/>
<text text-anchor="middle" x="1502.5" y="-298.6" font-family="Helvetica,sans-Serif" font-size="8.00" fill="#000000">max_len</text>
</g>
<!-- enable_gridss -->
<g id="node39" class="node">
<title>enable_gridss</title>
<polygon fill="#94ddf4" stroke="#000000" points="3191.5,-501.5 3191.5,-520.5 3266.5,-520.5 3266.5,-501.5 3191.5,-501.5"/>
<text text-anchor="middle" x="3229" y="-508.5" font-family="Helvetica,sans-Serif" font-size="10.00" fill="#000000">enable_gridss</text>
</g>
<!-- enable_gridss&#45;&gt;cnv_gridss -->
<g id="edge14" class="edge">
<title>enable_gridss&#45;&gt;cnv_gridss</title>
<path fill="none" stroke="#000000" d="M3213.6109,-501.2344C3200.9226,-491.8555 3185,-476.4169 3185,-458 3185,-458 3185,-458 3185,-143 3185,-118.2275 3015.3951,-104.9226 2937.4042,-100.114"/>
<polygon fill="#000000" stroke="#000000" points="2937.2867,-97.6525 2930.1515,-99.6751 2936.9906,-102.5435 2937.2867,-97.6525"/>
<text text-anchor="middle" x="3210" y="-298.6" font-family="Helvetica,sans-Serif" font-size="8.00" fill="#000000">enable_gridss</text>
</g>
<!-- exomeDepth_min_bf -->
<g id="node40" class="node">
<title>exomeDepth_min_bf</title>
<polygon fill="#94ddf4" stroke="#000000" points="562.5,-501.5 562.5,-520.5 667.5,-520.5 667.5,-501.5 562.5,-501.5"/>
<text text-anchor="middle" x="615" y="-508.5" font-family="Helvetica,sans-Serif" font-size="10.00" fill="#000000">exomeDepth_min_bf</text>
</g>
<!-- exomeDepth_min_bf&#45;&gt;cnv_exomedepth -->
<g id="edge70" class="edge">
<title>exomeDepth_min_bf&#45;&gt;cnv_exomedepth</title>
<path fill="none" stroke="#000000" d="M643.5529,-501.4115C652.5987,-498.528 662.6718,-495.4756 672,-493 737.9155,-475.5068 774.3564,-494.0062 816,-440 821.5508,-432.8013 839,-287.0903 839,-278 839,-278 839,-278 839,-143 839,-122.9637 964.5186,-108.7618 1038.0325,-102.1622"/>
<polygon fill="#000000" stroke="#000000" points="1038.6586,-104.5665 1045.4155,-101.5092 1038.2268,-99.6855 1038.6586,-104.5665"/>
<text text-anchor="middle" x="849.5" y="-298.6" font-family="Helvetica,sans-Serif" font-size="8.00" fill="#000000">min_bf</text>
</g>
<!-- html_report -->
<g id="node41" class="node">
<title>html_report</title>
<polygon fill="#94ddf4" stroke="#000000" points="344.5,-35.5 344.5,-54.5 409.5,-54.5 409.5,-35.5 344.5,-35.5"/>
<text text-anchor="middle" x="377" y="-42.5" font-family="Helvetica,sans-Serif" font-size="10.00" fill="#000000">html_report</text>
</g>
<!-- output_codex -->
<g id="node42" class="node">
<title>output_codex</title>
<polygon fill="#94ddf4" stroke="#000000" points="1070,-35.5 1070,-54.5 1144,-54.5 1144,-35.5 1070,-35.5"/>
<text text-anchor="middle" x="1107" y="-42.5" font-family="Helvetica,sans-Serif" font-size="10.00" fill="#000000">output_codex</text>
</g>
<!-- json_report -->
<g id="node43" class="node">
<title>json_report</title>
<polygon fill="#94ddf4" stroke="#000000" points="414,-35.5 414,-54.5 478,-54.5 478,-35.5 414,-35.5"/>
<text text-anchor="middle" x="446" y="-42.5" font-family="Helvetica,sans-Serif" font-size="10.00" fill="#000000">json_report</text>
</g>
<!-- output_manta -->
<g id="node44" class="node">
<title>output_manta</title>
<polygon fill="#94ddf4" stroke="#000000" points="1148,-35.5 1148,-54.5 1224,-54.5 1224,-35.5 1148,-35.5"/>
<text text-anchor="middle" x="1186" y="-42.5" font-family="Helvetica,sans-Serif" font-size="10.00" fill="#000000">output_manta</text>
</g>
<!-- output_bam_filtering -->
<g id="node45" class="node">
<title>output_bam_filtering</title>
<polygon fill="#94ddf4" stroke="#000000" points="962,-35.5 962,-54.5 1066,-54.5 1066,-35.5 962,-35.5"/>
<text text-anchor="middle" x="1014" y="-42.5" font-family="Helvetica,sans-Serif" font-size="10.00" fill="#000000">output_bam_filtering</text>
</g>
<!-- fastqc_paired_html -->
<g id="node46" class="node">
<title>fastqc_paired_html</title>
<polygon fill="#94ddf4" stroke="#000000" points="482,-35.5 482,-54.5 580,-54.5 580,-35.5 482,-35.5"/>
<text text-anchor="middle" x="531" y="-42.5" font-family="Helvetica,sans-Serif" font-size="10.00" fill="#000000">fastqc_paired_html</text>
</g>
<!-- fastqc_paired_zip -->
<g id="node47" class="node">
<title>fastqc_paired_zip</title>
<polygon fill="#94ddf4" stroke="#000000" points="760,-35.5 760,-54.5 852,-54.5 852,-35.5 760,-35.5"/>
<text text-anchor="middle" x="806" y="-42.5" font-family="Helvetica,sans-Serif" font-size="10.00" fill="#000000">fastqc_paired_zip</text>
</g>
<!-- fastqc_raw_html -->
<g id="node48" class="node">
<title>fastqc_raw_html</title>
<polygon fill="#94ddf4" stroke="#000000" points="584.5,-35.5 584.5,-54.5 671.5,-54.5 671.5,-35.5 584.5,-35.5"/>
<text text-anchor="middle" x="628" y="-42.5" font-family="Helvetica,sans-Serif" font-size="10.00" fill="#000000">fastqc_raw_html</text>
</g>
<!-- output_exomedepth -->
<g id="node49" class="node">
<title>output_exomedepth</title>
<polygon fill="#94ddf4" stroke="#000000" points="856.5,-35.5 856.5,-54.5 957.5,-54.5 957.5,-35.5 856.5,-35.5"/>
<text text-anchor="middle" x="907" y="-42.5" font-family="Helvetica,sans-Serif" font-size="10.00" fill="#000000">output_exomedepth</text>
</g>
<!-- fastqc_raw_zip -->
<g id="node50" class="node">
<title>fastqc_raw_zip</title>
<polygon fill="#94ddf4" stroke="#000000" points="676,-35.5 676,-54.5 756,-54.5 756,-35.5 676,-35.5"/>
<text text-anchor="middle" x="716" y="-42.5" font-family="Helvetica,sans-Serif" font-size="10.00" fill="#000000">fastqc_raw_zip</text>
</g>
<!-- output_all -->
<g id="node51" class="node">
<title>output_all</title>
<polygon fill="#94ddf4" stroke="#000000" points="1228.5,-35.5 1228.5,-54.5 1287.5,-54.5 1287.5,-35.5 1228.5,-35.5"/>
<text text-anchor="middle" x="1258" y="-42.5" font-family="Helvetica,sans-Serif" font-size="10.00" fill="#000000">output_all</text>
</g>
<!-- output_gridss -->
<g id="node52" class="node">
<title>output_gridss</title>
<polygon fill="#94ddf4" stroke="#000000" points="1292,-35.5 1292,-54.5 1366,-54.5 1366,-35.5 1292,-35.5"/>
<text text-anchor="middle" x="1329" y="-42.5" font-family="Helvetica,sans-Serif" font-size="10.00" fill="#000000">output_gridss</text>
</g>
<!-- bwa_index&#45;&gt;cnv_gridss -->
<g id="edge18" class="edge">
<title>bwa_index&#45;&gt;cnv_gridss</title>
<path fill="none" stroke="#000000" d="M1975.0863,-454.5722C2090.198,-441.5055 2491.3622,-392.5436 2604,-333 2629.6154,-319.459 2639,-306.9742 2639,-278 2639,-278 2639,-278 2639,-143 2639,-108.4075 2678.2803,-123.7215 2712,-116 2739.3111,-109.746 2814.1907,-103.779 2860.4886,-100.5307"/>
<polygon fill="#000000" stroke="#000000" points="2860.8484,-102.9617 2867.6621,-100.0331 2860.5093,-98.0735 2860.8484,-102.9617"/>
<text text-anchor="middle" x="2674" y="-276.1" font-family="Helvetica,sans-Serif" font-size="8.00" fill="#000000">reference_genome</text>
</g>
<!-- bwa_index&#45;&gt;bwa_mem -->
<g id="edge44" class="edge">
<title>bwa_index&#45;&gt;bwa_mem</title>
<path fill="none" stroke="#000000" d="M1912.819,-457.6019C1774.9416,-455.7343 1206.2392,-446.9061 740,-423 706.7925,-421.2973 669.087,-418.453 641.8142,-416.2322"/>
<polygon fill="#000000" stroke="#000000" points="641.9405,-413.7844 634.7634,-415.653 641.5393,-418.6679 641.9405,-413.7844"/>
<text text-anchor="middle" x="1166" y="-433.6" font-family="Helvetica,sans-Serif" font-size="8.00" fill="#000000">reference_fasta</text>
</g>
<!-- bwa_index&#45;&gt;cnv_manta -->
<g id="edge53" class="edge">
<title>bwa_index&#45;&gt;cnv_manta</title>
<path fill="none" stroke="#000000" d="M1975.0822,-448.8058C2032.8665,-431.0272 2159.786,-388.7255 2257,-333 2274.5855,-322.9196 2283.1938,-322.7399 2293,-305 2313.4213,-268.0568 2283.2838,-146.9388 2312,-116 2320.4618,-106.8833 2349.5658,-102.3634 2374.5306,-100.1344"/>
<polygon fill="#000000" stroke="#000000" points="2375.0029,-102.5539 2381.7788,-99.539 2374.6017,-97.6704 2375.0029,-102.5539"/>
<text text-anchor="middle" x="2335" y="-276.1" font-family="Helvetica,sans-Serif" font-size="8.00" fill="#000000">reference_genome</text>
</g>
<!-- bwa_index&#45;&gt;cnv_exomedepth -->
<g id="edge66" class="edge">
<title>bwa_index&#45;&gt;cnv_exomedepth</title>
<path fill="none" stroke="#000000" d="M1912.9382,-451.8668C1836.7806,-436.6283 1634.8898,-395.0138 1469,-350 1457.9779,-347.0092 1280.1656,-296.8931 1273,-288 1263.8987,-276.7046 1270,-270.0059 1270,-255.5 1270,-255.5 1270,-255.5 1270,-188 1270,-163.2304 1278.1637,-150.8588 1261,-133 1244.7891,-116.1325 1185.9268,-106.8797 1141.7599,-102.1922"/>
<polygon fill="#000000" stroke="#000000" points="1141.7435,-99.7277 1134.5301,-101.4512 1141.2438,-104.6022 1141.7435,-99.7277"/>
<text text-anchor="middle" x="1308" y="-276.1" font-family="Helvetica,sans-Serif" font-size="8.00" fill="#000000">reference_genome</text>
</g>
<!-- cnv_gridss&#45;&gt;output_gridss -->
<g id="edge87" class="edge">
<title>cnv_gridss&#45;&gt;output_gridss</title>
<path fill="none" stroke="#000000" d="M2867.835,-97.2435C2794.5935,-95.4798 2605.7816,-91.0165 2448,-88 2329.3225,-85.7311 1496.6834,-84.7823 1380,-63 1372.8006,-61.656 1365.2538,-59.46 1358.2396,-57.0559"/>
<polygon fill="#000000" stroke="#000000" points="1358.8516,-54.6724 1351.4355,-54.6064 1357.1918,-59.2827 1358.8516,-54.6724"/>
</g>
<!-- final_filtering -->
<g id="node62" class="node">
<title>final_filtering</title>
<polygon fill="#f3cea1" stroke="#000000" points="1382,-35.5 1382,-54.5 1452,-54.5 1452,-35.5 1382,-35.5"/>
<text text-anchor="middle" x="1417" y="-42.5" font-family="Helvetica,sans-Serif" font-size="10.00" fill="#000000">final_filtering</text>
</g>
<!-- cnv_gridss&#45;&gt;final_filtering -->
<g id="edge64" class="edge">
<title>cnv_gridss&#45;&gt;final_filtering</title>
<path fill="none" stroke="#000000" d="M2867.7044,-96.8808C2677.5686,-90.0811 1678.2832,-54.3441 1459.3972,-46.5162"/>
<polygon fill="#000000" stroke="#000000" points="1459.3264,-44.0622 1452.2433,-46.2604 1459.1512,-48.9591 1459.3264,-44.0622"/>
<text text-anchor="middle" x="2398.5" y="-73.6" font-family="Helvetica,sans-Serif" font-size="8.00" fill="#000000">gridss_input</text>
</g>
<!-- bam_filtering&#45;&gt;output_bam_filtering -->
<g id="edge80" class="edge">
<title>bam_filtering&#45;&gt;output_bam_filtering</title>
<path fill="none" stroke="#000000" d="M1210.153,-133.4273C1193.8118,-121.5769 1164.4133,-101.3318 1137,-88 1121.4914,-80.4578 1080.8259,-66.6467 1050.4706,-56.7094"/>
<polygon fill="#000000" stroke="#000000" points="1051.1902,-54.3672 1043.7755,-54.5256 1049.6707,-59.0256 1051.1902,-54.3672"/>
</g>
<!-- bam_filtering&#45;&gt;cnv_gridss -->
<g id="edge12" class="edge">
<title>bam_filtering&#45;&gt;cnv_gridss</title>
<path fill="none" stroke="#000000" d="M1258.7349,-142.1538C1364.003,-139.6516 1682.1041,-132.0233 1946,-125 2301.2784,-115.5447 2731.0235,-102.9558 2860.3708,-99.142"/>
<polygon fill="#000000" stroke="#000000" points="2860.8154,-101.5801 2867.7401,-98.9246 2860.6709,-96.6822 2860.8154,-101.5801"/>
<text text-anchor="middle" x="2270" y="-118.6" font-family="Helvetica,sans-Serif" font-size="8.00" fill="#000000">bams</text>
</g>
<!-- bam_filtering&#45;&gt;cnv_codex -->
<g id="edge38" class="edge">
<title>bam_filtering&#45;&gt;cnv_codex</title>
<path fill="none" stroke="#000000" d="M1258.8472,-133.5665C1287.1963,-126.1062 1326.6905,-115.713 1355.666,-108.0879"/>
<polygon fill="#000000" stroke="#000000" points="1356.6469,-110.3633 1362.7929,-106.2124 1355.3998,-105.6246 1356.6469,-110.3633"/>
<text text-anchor="middle" x="1333" y="-118.6" font-family="Helvetica,sans-Serif" font-size="8.00" fill="#000000">bams</text>
</g>
<!-- bam_filtering&#45;&gt;cnv_manta -->
<g id="edge55" class="edge">
<title>bam_filtering&#45;&gt;cnv_manta</title>
<path fill="none" stroke="#000000" d="M1258.6443,-141.6532C1432.7245,-135.0759 2192.5191,-106.3683 2374.6554,-99.4866"/>
<polygon fill="#000000" stroke="#000000" points="2374.9909,-101.9257 2381.8934,-99.2131 2374.8058,-97.0292 2374.9909,-101.9257"/>
<text text-anchor="middle" x="1935" y="-118.6" font-family="Helvetica,sans-Serif" font-size="8.00" fill="#000000">bams</text>
</g>
<!-- bam_filtering&#45;&gt;cnv_exomedepth -->
<g id="edge71" class="edge">
<title>bam_filtering&#45;&gt;cnv_exomedepth</title>
<path fill="none" stroke="#000000" d="M1187.2424,-140.689C1158.1585,-138.2259 1119.9012,-133.4785 1107,-125 1102.8685,-122.2849 1099.5515,-118.1812 1096.9833,-113.9872"/>
<polygon fill="#000000" stroke="#000000" points="1098.9944,-112.5494 1093.5542,-107.5088 1094.6636,-114.8417 1098.9944,-112.5494"/>
<text text-anchor="middle" x="1117" y="-118.6" font-family="Helvetica,sans-Serif" font-size="8.00" fill="#000000">bams</text>
</g>
<!-- samtools_sort&#45;&gt;samtools_merge -->
<g id="edge57" class="edge">
<title>samtools_sort&#45;&gt;samtools_merge</title>
<path fill="none" stroke="#000000" d="M691.5326,-313.3219C691.7102,-307.8458 692.7102,-301.0958 696,-296 696.8659,-294.6588 697.8709,-293.3974 698.975,-292.2143"/>
<polygon fill="#000000" stroke="#000000" points="700.6773,-293.9802 704.3256,-287.5232 697.447,-290.2957 700.6773,-293.9802"/>
<text text-anchor="middle" x="707.5" y="-298.6" font-family="Helvetica,sans-Serif" font-size="8.00" fill="#000000">paired</text>
</g>
<!-- samtools_sort&#45;&gt;samtools_merge -->
<g id="edge58" class="edge">
<title>samtools_sort&#45;&gt;samtools_merge</title>
<path fill="none" stroke="#000000" d="M708.0543,-313.2419C711.0237,-310.8494 713.8589,-308.0787 716,-305 718.1773,-301.8693 719.7705,-298.1399 720.9333,-294.4671"/>
<polygon fill="#000000" stroke="#000000" points="723.3167,-295.0358 722.6797,-287.6468 718.5698,-293.8203 723.3167,-295.0358"/>
<text text-anchor="middle" x="743.5" y="-298.6" font-family="Helvetica,sans-Serif" font-size="8.00" fill="#000000">unpaired_R2</text>
</g>
<!-- samtools_sort&#45;&gt;samtools_merge -->
<g id="edge59" class="edge">
<title>samtools_sort&#45;&gt;samtools_merge</title>
<path fill="none" stroke="#000000" d="M653.8844,-313.585C644.1664,-309.334 637.9674,-303.5407 644,-296 648.1652,-290.7935 659.9933,-286.9872 673.3187,-284.2535"/>
<polygon fill="#000000" stroke="#000000" points="673.9661,-286.6247 680.3909,-282.92 673.0581,-281.8095 673.9661,-286.6247"/>
<text text-anchor="middle" x="667.5" y="-298.6" font-family="Helvetica,sans-Serif" font-size="8.00" fill="#000000">unpaired_R1</text>
</g>
<!-- samtools_view_sam2bam&#45;&gt;samtools_sort -->
<g id="edge25" class="edge">
<title>samtools_view_sam2bam&#45;&gt;samtools_sort</title>
<path fill="none" stroke="#000000" d="M645.4922,-358.3019C647.3447,-352.6837 650.3668,-345.7961 655,-341 656.5882,-339.3559 658.3575,-337.8417 660.2378,-336.4504"/>
<polygon fill="#000000" stroke="#000000" points="661.5895,-338.494 666.1414,-332.6388 658.9317,-334.3774 661.5895,-338.494"/>
<text text-anchor="middle" x="678.5" y="-343.6" font-family="Helvetica,sans-Serif" font-size="8.00" fill="#000000">unpaired_R2</text>
</g>
<!-- samtools_view_sam2bam&#45;&gt;samtools_sort -->
<g id="edge26" class="edge">
<title>samtools_view_sam2bam&#45;&gt;samtools_sort</title>
<path fill="none" stroke="#000000" d="M610.8946,-358.4909C601.4834,-354.0593 595.1121,-348.1667 601,-341 607.0815,-333.5977 627.1646,-329.188 646.9217,-326.5881"/>
<polygon fill="#000000" stroke="#000000" points="647.2203,-329.02 653.873,-325.742 646.6282,-324.1559 647.2203,-329.02"/>
<text text-anchor="middle" x="624.5" y="-343.6" font-family="Helvetica,sans-Serif" font-size="8.00" fill="#000000">unpaired_R1</text>
</g>
<!-- samtools_view_sam2bam&#45;&gt;samtools_sort -->
<g id="edge27" class="edge">
<title>samtools_view_sam2bam&#45;&gt;samtools_sort</title>
<path fill="none" stroke="#000000" d="M683.7335,-358.4683C690.8499,-355.9962 696.7141,-353.1359 699,-350 701.225,-346.9478 701.4443,-343.2489 700.6735,-339.5809"/>
<polygon fill="#000000" stroke="#000000" points="702.895,-338.5157 698.2384,-332.7434 698.279,-340.1597 702.895,-338.5157"/>
<text text-anchor="middle" x="712.5" y="-343.6" font-family="Helvetica,sans-Serif" font-size="8.00" fill="#000000">paired</text>
</g>
<!-- cnv_codex&#45;&gt;output_codex -->
<g id="edge77" class="edge">
<title>cnv_codex&#45;&gt;output_codex</title>
<path fill="none" stroke="#000000" d="M1362.9104,-97.0763C1315.4461,-94.8947 1222.5683,-87.5701 1148,-63 1143.127,-61.3944 1138.0415,-59.4202 1133.1769,-57.3743"/>
<polygon fill="#000000" stroke="#000000" points="1134.1175,-55.1117 1126.7211,-54.5678 1132.1639,-59.6055 1134.1175,-55.1117"/>
</g>
<!-- cnv_codex&#45;&gt;final_filtering -->
<g id="edge62" class="edge">
<title>cnv_codex&#45;&gt;final_filtering</title>
<path fill="none" stroke="#000000" d="M1398.2186,-88.279C1401.4931,-80.7333 1406.1057,-70.1042 1409.9402,-61.2681"/>
<polygon fill="#000000" stroke="#000000" points="1412.269,-62.0562 1412.8082,-54.6594 1407.774,-60.1055 1412.269,-62.0562"/>
<text text-anchor="middle" x="1427" y="-73.6" font-family="Helvetica,sans-Serif" font-size="8.00" fill="#000000">codex_input</text>
</g>
<!-- bwa_mem&#45;&gt;samtools_view_sam2bam -->
<g id="edge28" class="edge">
<title>bwa_mem&#45;&gt;samtools_view_sam2bam</title>
<path fill="none" stroke="#000000" d="M625.6851,-403.3078C629.1706,-400.989 632.461,-398.2287 635,-395 637.3941,-391.9556 639.0725,-388.21 640.249,-384.4885"/>
<polygon fill="#000000" stroke="#000000" points="642.6621,-384.9349 641.9489,-377.5529 637.9029,-383.7684 642.6621,-384.9349"/>
<text text-anchor="middle" x="662.5" y="-388.6" font-family="Helvetica,sans-Serif" font-size="8.00" fill="#000000">unpaired_R2</text>
</g>
<!-- bwa_mem&#45;&gt;samtools_view_sam2bam -->
<g id="edge29" class="edge">
<title>bwa_mem&#45;&gt;samtools_view_sam2bam</title>
<path fill="none" stroke="#000000" d="M573.2747,-405.3226C561.4283,-400.8584 552.1839,-394.4314 559,-386 561.4613,-382.9554 566.4459,-380.4026 572.8153,-378.2678"/>
<polygon fill="#000000" stroke="#000000" points="573.5807,-380.5965 579.6041,-376.2697 572.1971,-375.8959 573.5807,-380.5965"/>
<text text-anchor="middle" x="582.5" y="-388.6" font-family="Helvetica,sans-Serif" font-size="8.00" fill="#000000">unpaired_R1</text>
</g>
<!-- bwa_mem&#45;&gt;samtools_view_sam2bam -->
<g id="edge31" class="edge">
<title>bwa_mem&#45;&gt;samtools_view_sam2bam</title>
<path fill="none" stroke="#000000" d="M604.6273,-403.4417C605.4149,-397.8731 607.16,-390.9884 611,-386 612.1227,-384.5415 613.3992,-383.1831 614.7806,-381.9206"/>
<polygon fill="#000000" stroke="#000000" points="616.4589,-383.7213 620.5248,-377.5187 613.4784,-379.8319 616.4589,-383.7213"/>
<text text-anchor="middle" x="622.5" y="-388.6" font-family="Helvetica,sans-Serif" font-size="8.00" fill="#000000">paired</text>
</g>
<!-- cnv_manta&#45;&gt;output_manta -->
<g id="edge79" class="edge">
<title>cnv_manta&#45;&gt;output_manta</title>
<path fill="none" stroke="#000000" d="M2381.9489,-97.7096C2197.652,-96.0148 1280.1208,-87.2266 1252,-80 1235.3126,-75.7116 1218.1717,-66.4491 1205.5415,-58.5296"/>
<polygon fill="#000000" stroke="#000000" points="1206.5832,-56.2858 1199.3742,-54.5441 1203.9236,-60.4012 1206.5832,-56.2858"/>
</g>
<!-- cnv_manta&#45;&gt;final_filtering -->
<g id="edge63" class="edge">
<title>cnv_manta&#45;&gt;final_filtering</title>
<path fill="none" stroke="#000000" d="M2381.9572,-96.2966C2235.0707,-88.4882 1626.1364,-56.1176 1459.3837,-47.2531"/>
<polygon fill="#000000" stroke="#000000" points="1459.3631,-44.7986 1452.2429,-46.8735 1459.1029,-49.6917 1459.3631,-44.7986"/>
<text text-anchor="middle" x="2085.5" y="-73.6" font-family="Helvetica,sans-Serif" font-size="8.00" fill="#000000">manta_input</text>
</g>
<!-- picard_markduplicates -->
<g id="node61" class="node">
<title>picard_markduplicates</title>
<polygon fill="#f3cea1" stroke="#000000" points="866.5,-178.5 866.5,-197.5 979.5,-197.5 979.5,-178.5 866.5,-178.5"/>
<text text-anchor="middle" x="923" y="-185.5" font-family="Helvetica,sans-Serif" font-size="10.00" fill="#000000">picard_markduplicates</text>
</g>
<!-- picard_markduplicates&#45;&gt;bam_filtering -->
<g id="edge23" class="edge">
<title>picard_markduplicates&#45;&gt;bam_filtering</title>
<path fill="none" stroke="#000000" d="M979.7804,-179.4829C1038.024,-170.7464 1127.3342,-157.3499 1179.9819,-149.4527"/>
<polygon fill="#000000" stroke="#000000" points="1180.6013,-151.8373 1187.1603,-148.3759 1179.8743,-146.9915 1180.6013,-151.8373"/>
<text text-anchor="middle" x="1108" y="-163.6" font-family="Helvetica,sans-Serif" font-size="8.00" fill="#000000">input</text>
</g>
<!-- final_filtering&#45;&gt;output_all -->
<g id="edge86" class="edge">
<title>final_filtering&#45;&gt;output_all</title>
<path fill="none" stroke="#000000" d="M1407.1244,-54.5128C1398.7838,-61.842 1386.1292,-71.3945 1373,-75.5 1339.4891,-85.9789 1326.9651,-87.587 1294,-75.5 1285.4031,-72.3478 1277.45,-66.1333 1271.2177,-60.1318"/>
<polygon fill="#000000" stroke="#000000" points="1272.6449,-58.0851 1266.0087,-54.774 1269.1316,-61.5008 1272.6449,-58.0851"/>
</g>
<!-- cnv_exomedepth&#45;&gt;output_exomedepth -->
<g id="edge84" class="edge">
<title>cnv_exomedepth&#45;&gt;output_exomedepth</title>
<path fill="none" stroke="#000000" d="M1053.1717,-88.4458C1027.5191,-81.6649 992.5607,-72.173 962,-63 955.5692,-61.0698 948.7479,-58.9207 942.1782,-56.7985"/>
<polygon fill="#000000" stroke="#000000" points="942.5931,-54.357 935.1785,-54.518 941.0752,-59.016 942.5931,-54.357"/>
</g>
<!-- cnv_exomedepth&#45;&gt;final_filtering -->
<g id="edge61" class="edge">
<title>cnv_exomedepth&#45;&gt;final_filtering</title>
<path fill="none" stroke="#000000" d="M1134.5585,-93.2276C1208.8994,-85.1609 1352.349,-69.1117 1375,-63 1380.3854,-61.5469 1385.9808,-59.5342 1391.2647,-57.3788"/>
<polygon fill="#000000" stroke="#000000" points="1392.2795,-59.6095 1397.7517,-54.6038 1390.3522,-55.1044 1392.2795,-59.6095"/>
<text text-anchor="middle" x="1354" y="-73.6" font-family="Helvetica,sans-Serif" font-size="8.00" fill="#000000">exomeDepth_input</text>
</g>
<!-- trimmed_fastq&#45;&gt;html_report -->
<g id="edge76" class="edge">
<title>trimmed_fastq&#45;&gt;html_report</title>
<path fill="none" stroke="#000000" d="M391.3191,-448.4092C388.5678,-445.9402 385.9321,-443.096 384,-440 377.4369,-429.4831 377,-425.3967 377,-413 377,-413 377,-413 377,-98 377,-85.9749 377,-72.4152 377,-62.0215"/>
<polygon fill="#000000" stroke="#000000" points="379.4501,-61.7683 377,-54.7683 374.5501,-61.7684 379.4501,-61.7683"/>
</g>
<!-- trimmed_fastq&#45;&gt;json_report -->
<g id="edge78" class="edge">
<title>trimmed_fastq&#45;&gt;json_report</title>
<path fill="none" stroke="#000000" d="M399.0542,-448.3864C394.1519,-439.5332 388,-425.8612 388,-413 388,-413 388,-413 388,-98 388,-85.6033 387.2388,-80.6665 395,-71 395.4901,-70.3896 407.8585,-64.0786 420.2907,-57.8279"/>
<polygon fill="#000000" stroke="#000000" points="421.5768,-59.9238 426.7352,-54.5952 419.3798,-55.5439 421.5768,-59.9238"/>
</g>
<!-- trimmed_fastq&#45;&gt;fastqc_paired_html -->
<g id="edge81" class="edge">
<title>trimmed_fastq&#45;&gt;fastqc_paired_html</title>
<path fill="none" stroke="#000000" d="M402.9687,-448.3934C401.228,-439.316 399,-425.2954 399,-413 399,-413 399,-413 399,-98 399,-85.6033 396.6303,-79.1171 406,-71 418.1676,-60.4591 462.2861,-66.4979 478,-63 485.1141,-61.4164 492.6087,-59.2158 499.6504,-56.8955"/>
<polygon fill="#000000" stroke="#000000" points="500.6771,-59.1339 506.5103,-54.5538 499.0941,-54.4967 500.6771,-59.1339"/>
</g>
<!-- trimmed_fastq&#45;&gt;fastqc_paired_zip -->
<g id="edge82" class="edge">
<title>trimmed_fastq&#45;&gt;fastqc_paired_zip</title>
<path fill="none" stroke="#000000" d="M415.0538,-448.2728C422.7303,-439.7669 432,-426.6663 432,-413 432,-413 432,-413 432,-98 432,-61.7906 720.7161,-71.1344 756,-63 762.6021,-61.4779 769.531,-59.3479 776.0558,-57.0839"/>
<polygon fill="#000000" stroke="#000000" points="777.191,-59.2789 782.9428,-54.5971 775.5268,-54.6702 777.191,-59.2789"/>
</g>
<!-- trimmed_fastq&#45;&gt;fastqc_raw_html -->
<g id="edge83" class="edge">
<title>trimmed_fastq&#45;&gt;fastqc_raw_html</title>
<path fill="none" stroke="#000000" d="M406.6928,-448.3784C408.1433,-439.2903 410,-425.2625 410,-413 410,-413 410,-413 410,-98 410,-85.6033 407.3835,-78.8232 417,-71 431.1523,-59.4868 563.1465,-66.7539 581,-63 587.5306,-61.6269 594.3478,-59.4709 600.6994,-57.1215"/>
<polygon fill="#000000" stroke="#000000" points="601.7385,-59.3462 607.3732,-54.524 599.9612,-54.7798 601.7385,-59.3462"/>
</g>
<!-- trimmed_fastq&#45;&gt;fastqc_raw_zip -->
<g id="edge85" class="edge">
<title>trimmed_fastq&#45;&gt;fastqc_raw_zip</title>
<path fill="none" stroke="#000000" d="M410.596,-448.3426C415.21,-439.4599 421,-425.7691 421,-413 421,-413 421,-413 421,-98 421,-85.6033 418.3214,-78.7462 428,-71 438.589,-62.5252 658.7367,-65.8346 672,-63 678.0332,-61.7106 684.2945,-59.6396 690.1363,-57.3532"/>
<polygon fill="#000000" stroke="#000000" points="691.2357,-59.5497 696.7626,-54.6043 689.3581,-55.0237 691.2357,-59.5497"/>
</g>
<!-- trimmed_fastq&#45;&gt;bwa_mem -->
<g id="edge40" class="edge">
<title>trimmed_fastq&#45;&gt;bwa_mem</title>
<path fill="none" stroke="#000000" d="M444.3933,-456.5417C496.6,-454.2653 583.4914,-449.1506 595,-440 598.2391,-437.4246 600.322,-433.6446 601.6587,-429.7237"/>
<polygon fill="#000000" stroke="#000000" points="604.0825,-430.1238 603.3472,-422.7439 599.3199,-428.9716 604.0825,-430.1238"/>
<text text-anchor="middle" x="620" y="-433.6" font-family="Helvetica,sans-Serif" font-size="8.00" fill="#000000">paired_R2</text>
</g>
<!-- trimmed_fastq&#45;&gt;bwa_mem -->
<g id="edge43" class="edge">
<title>trimmed_fastq&#45;&gt;bwa_mem</title>
<path fill="none" stroke="#000000" d="M422.2742,-448.4502C426.805,-445.8157 431.641,-442.8858 436,-440 441.5589,-436.3199 441.8069,-433.4678 448,-431 468.8025,-422.7108 527.1447,-417.6479 566.282,-415.084"/>
<polygon fill="#000000" stroke="#000000" points="566.5227,-417.5238 573.353,-414.6342 566.2115,-412.6337 566.5227,-417.5238"/>
<text text-anchor="middle" x="467" y="-433.6" font-family="Helvetica,sans-Serif" font-size="8.00" fill="#000000">paired_R1</text>
</g>
<!-- trimmed_fastq&#45;&gt;bwa_mem -->
<g id="edge45" class="edge">
<title>trimmed_fastq&#45;&gt;bwa_mem</title>
<path fill="none" stroke="#000000" d="M444.1426,-452.2861C456.9084,-449.5614 470.9017,-445.6241 483,-440 489.0454,-437.1897 488.8689,-433.6181 495,-431 507.5761,-425.6298 539.9602,-420.6574 566.1841,-417.3059"/>
<polygon fill="#000000" stroke="#000000" points="566.7536,-419.7038 573.3957,-416.4046 566.1458,-414.8417 566.7536,-419.7038"/>
<text text-anchor="middle" x="518.5" y="-433.6" font-family="Helvetica,sans-Serif" font-size="8.00" fill="#000000">unpaired_R1</text>
</g>
<!-- trimmed_fastq&#45;&gt;bwa_mem -->
<g id="edge46" class="edge">
<title>trimmed_fastq&#45;&gt;bwa_mem</title>
<path fill="none" stroke="#000000" d="M444.267,-455.7468C477.7925,-453.2774 523.0428,-448.4877 539,-440 543.725,-437.4868 542.5088,-433.9106 547,-431 552.9437,-427.1481 559.7695,-424.0707 566.5847,-421.6285"/>
<polygon fill="#000000" stroke="#000000" points="567.4828,-423.9122 573.3632,-419.393 565.948,-419.2588 567.4828,-423.9122"/>
<text text-anchor="middle" x="570.5" y="-433.6" font-family="Helvetica,sans-Serif" font-size="8.00" fill="#000000">unpaired_R2</text>
</g>
<!-- samtools_index -->
<g id="node66" class="node">
<title>samtools_index</title>
<polygon fill="#fafad2" stroke="#000000" points="687.5,-223.5 687.5,-242.5 770.5,-242.5 770.5,-223.5 687.5,-223.5"/>
<text text-anchor="middle" x="729" y="-230.5" font-family="Helvetica,sans-Serif" font-size="10.00" fill="#000000">samtools_index</text>
</g>
<!-- samtools_merge&#45;&gt;samtools_index -->
<g id="edge19" class="edge">
<title>samtools_merge&#45;&gt;samtools_index</title>
<path fill="none" stroke="#000000" d="M725.0604,-268.4567C725.6702,-262.9678 726.4535,-255.9184 727.1608,-249.5532"/>
<polygon fill="#000000" stroke="#000000" points="729.6031,-249.7574 727.9412,-242.5296 724.733,-249.2162 729.6031,-249.7574"/>
<text text-anchor="middle" x="735" y="-253.6" font-family="Helvetica,sans-Serif" font-size="8.00" fill="#000000">input</text>
</g>
<!-- samtools_index&#45;&gt;picard_markduplicates -->
<g id="edge56" class="edge">
<title>samtools_index&#45;&gt;picard_markduplicates</title>
<path fill="none" stroke="#000000" d="M770.1424,-223.4567C800.75,-216.357 842.6134,-206.6464 874.7913,-199.1824"/>
<polygon fill="#000000" stroke="#000000" points="875.6516,-201.498 881.9169,-197.5296 874.5443,-196.7247 875.6516,-201.498"/>
<text text-anchor="middle" x="852" y="-208.6" font-family="Helvetica,sans-Serif" font-size="8.00" fill="#000000">input</text>
</g>
</g>
</svg>
